CogSci 2020 Analysis
…
print(missing_rows %>% group_by(model, training, seed, corpus) %>% summarise(n=n()) %>% arrange(desc(n)))

## `summarise()` has grouped output by 'model', 'training', 'seed'. You can override using the `.groups` argument.

## # A tibble: 87 x 5
## # Groups:   model, training, seed [35]
##    model   training        seed       corpus              n
##    <fct>   <chr>           <fct>      <chr>           <int>
##  1 vanilla bllip-md        607        dundee          35391
##  2 5gram   bllip-xs        1111       dundee           7579
##  3 rnng    bllip-xs        4301       dundee           7579
##  4 rnng    bllip-xs        28066      dundee           7579
##  5 rnng    bllip-xs        28068      dundee           7579
##  6 rnng    bllip-xs        51272      dundee           7579
##  7 vanilla bllip-xs        120        dundee           7579
##  8 vanilla bllip-xs        111        dundee           7578
##  9 vanilla bllip-xs        922        dundee           7578
## 10 gpt2    bllip-md-gptbpe 1582126320 natural-stories  5181
## #  with 77 more rows
…
